jQuery17106240849919747675_1458301091986({"totalCount":5,"totalPage":1,"prePage":0,"nextPage":1,"currentPage":1,"totalPrice":0,"data":[{"extUserGroupList":["DEFAULT"],"extIsVipGroup":false,"extIsSpecialGroup":false,"extProgress":0,"extSameAnyiProductCounts":0,"id":13255495,"productStatus":"ONLINE","productCategory":"A02","minInvestAmount":20000,"displayName":"????_A0201","fundCode":"110020","dayIncrease":"0.02734958"},{"extUserGroupList":["DEFAULT"],"extIsVipGroup":false,"extIsSpecialGroup":false,"extProgress":0,"extSameAnyiProductCounts":0,"id":91234172382,"productStatus":"ONLINE","productCategory":"802","minInvestAmount":900,"displayName":"????_10086","unitPrice2":1.7841,"onlineStatusFlag":"0","oneMonIncrease":1,"threeMonIncrease":0.1,"twelveMonIncrease":0.3,"moreTwelveMonIncrease":1.56,"fundCode":"110020"},{"extUserGroupList":["DEFAULT"],"extIsVipGroup":false,"extIsSpecialGroup":false,"extProgress":0,"extSameAnyiProductCounts":0,"extGroupNum":1,"extApplyProductFeeGson":{"fee":0.1,"discount":0.6,"discountFee":0.06},"id":13199545,"productStatus":"ONLINE","productCategory":"802","displayName":"???????????????????","interestRatePerSevenDay":0.15,"unitPrice2":0.981,"onlineStatusFlag":"1","oneMonIncrease":2.622489,"threeMonIncrease":2.360597,"twelveMonIncrease":-15.593434,"moreTwelveMonIncrease":-14.903999,"totalIncrease":-19.78,"fundCode":"110020"},{"extUserGroupList":["DEFAULT"],"extIsVipGroup":false,"extIsSpecialGroup":false,"extProgress":0,"extSameAnyiProductCounts":0,"id":13255496,"productStatus":"ONLINE","productCategory":"A02","minInvestAmount":1000,"displayName":"????_A0202","fundCode":"475564"},{"extUserGroupList":[],"extIsVipGroup":false,"extIsSpecialGroup":false,"extProgress":0,"extSameAnyiProductCounts":0,"extMinAmount":100,"id":13199952,"productStatus":"UNPLANNED","productCategory":"802","minInvestAmount":100,"displayName":"name","fundCode":"475564"}],"extraData":[],"hasOnlineOrPreviewProducts":true,"retCode":"000"})